,date,city,rent,product
0,2022-01-01,Batman,7,1875
1,2022-01-02,Elazığ,16,1127
2,2022-01-03,Batman,4,1078
3,2022-01-04,Bingöl,6,1226
4,2022-01-05,Kastamonu,6,1529
5,2022-01-06,Bursa,7,1809
6,2022-01-07,Şırnak,7,1015
7,2022-01-08,Adana,2,1974
8,2022-01-09,Bilecik,17,1080
9,2022-01-10,Balıkesir,5,1869
10,2022-01-11,Tokat,12,1804
11,2022-01-12,Ardahan,12,1945
12,2022-01-13,Sivas,15,1432
13,2022-01-14,Ardahan,1,1508
14,2022-01-15,Antalya,14,1687
15,2022-01-16,Bayburt,3,1604
16,2022-01-17,Niğde,10,1850
17,2022-01-18,Amasya,5,1601
18,2022-01-19,Kahramanmaraş,2,1094
19,2022-01-20,Manisa,16,1129
20,2022-01-21,Isparta,5,1495
21,2022-01-22,Yozgat,17,1460
22,2022-01-23,Muğla,17,1096
23,2022-01-24,Giresun,5,1538
24,2022-01-25,Siirt,8,1759
25,2022-01-26,Erzurum,9,1065
26,2022-01-27,İzmir,9,1923
27,2022-01-28,Gümüşhane,3,1802
28,2022-01-29,Trabzon,14,1981
29,2022-01-30,Gümüşhane,11,1614
30,2022-01-31,Konya,14,1734
31,2022-02-01,Eskişehir,5,1544
32,2022-02-02,Gaziantep,10,1315
33,2022-02-03,Kırıkkale,8,1898
34,2022-02-04,Eskişehir,4,1963
35,2022-02-05,Ordu,4,1899
36,2022-02-06,Mardin,9,1315
37,2022-02-07,Ankara,1,1653
38,2022-02-08,Bayburt,14,1915
39,2022-02-09,Balıkesir,9,1173
40,2022-02-10,Balıkesir,15,1841
41,2022-02-11,Kocaeli,15,1400
42,2022-02-12,Tokat,6,1419
43,2022-02-13,Ardahan,17,1350
44,2022-02-14,Bursa,11,1621
45,2022-02-15,Kahramanmaraş,17,1100
46,2022-02-16,Bayburt,5,1367
47,2022-02-17,Aksaray,6,1341
48,2022-02-18,Hatay,2,1163
49,2022-02-19,Bartın,16,1576
50,2022-02-20,Kırıkkale,2,1462
51,2022-02-21,Ardahan,13,1076
52,2022-02-22,Bilecik,17,1573
53,2022-02-23,Kırşehir,4,1088
54,2022-02-24,İçel (Mersin),10,1083
55,2022-02-25,Siirt,9,1513
56,2022-02-26,Karaman,13,1703
57,2022-02-27,Ordu,3,1524
58,2022-02-28,Kahramanmaraş,11,1413
59,2022-03-01,Konya,1,1700
60,2022-03-02,Muğla,17,1479
61,2022-03-03,Osmaniye,5,1007
62,2022-03-04,Burdur,11,1803
63,2022-03-05,Gümüşhane,9,1007
64,2022-03-06,Siirt,1,1619
65,2022-03-07,Siirt,7,1670
66,2022-03-08,Kırklareli,12,1482
67,2022-03-09,Bolu,5,1193
68,2022-03-10,Diyarbakır,10,1467
69,2022-03-11,Bartın,5,1039
70,2022-03-12,İzmir,9,1698
71,2022-03-13,Konya,5,1553
72,2022-03-14,Rize,5,1662
73,2022-03-15,Karabük,16,1694
74,2022-03-16,Ordu,1,1364
75,2022-03-17,Kars,17,1349
76,2022-03-18,Diyarbakır,12,1258
77,2022-03-19,Bingöl,4,1472
78,2022-03-20,Erzurum,14,1923
79,2022-03-21,Niğde,14,1972
80,2022-03-22,Mardin,16,1031
81,2022-03-23,Ankara,3,1402
82,2022-03-24,Şanlıurfa,14,1346
83,2022-03-25,Ordu,8,1405
84,2022-03-26,Sinop,2,1403
85,2022-03-27,Aksaray,6,1145
86,2022-03-28,Şanlıurfa,8,1748
87,2022-03-29,Kütahya,12,1687
88,2022-03-30,Kars,1,1720
89,2022-03-31,Erzurum,15,1594
90,2022-04-01,Afyon,4,1692
91,2022-04-02,İçel (Mersin),12,1825
92,2022-04-03,Ankara,5,1739
93,2022-04-04,Erzurum,13,1108
94,2022-04-05,Uşak,12,1062
95,2022-04-06,Yalova,13,1878
96,2022-04-07,Gaziantep,12,1843
97,2022-04-08,Karaman,8,1108
98,2022-04-09,Karaman,3,1274
99,2022-04-10,Artvin,6,1542
100,2022-04-11,Muğla,17,1763
101,2022-04-12,Kahramanmaraş,1,1360
102,2022-04-13,Kütahya,10,1614
103,2022-04-14,Ankara,13,1623
104,2022-04-15,Mardin,8,1072
105,2022-04-16,Nevşehir,13,1741
106,2022-04-17,Hakkari,17,1815
107,2022-04-18,Amasya,5,1462
108,2022-04-19,Ankara,11,1372
109,2022-04-20,Kocaeli,10,1690
110,2022-04-21,Denizli,10,1671
111,2022-04-22,Bilecik,8,1458
112,2022-04-23,İzmir,2,1048
113,2022-04-24,Erzincan,2,1385
114,2022-04-25,Balıkesir,3,1864
115,2022-04-26,Kars,1,1065
116,2022-04-27,Amasya,11,1642
117,2022-04-28,Konya,15,1428
118,2022-04-29,Bolu,3,1202
119,2022-04-30,Siirt,17,1542
120,2022-05-01,Ağrı,6,1632
121,2022-05-02,Kırklareli,17,1654
122,2022-05-03,Hakkari,17,1799
123,2022-05-04,Sivas,8,1274
124,2022-05-05,Trabzon,4,1672
125,2022-05-06,Ordu,11,1198
126,2022-05-07,Elazığ,5,1980
127,2022-05-08,Bitlis,10,1057
128,2022-05-09,Kastamonu,6,1563
129,2022-05-10,Malatya,6,1956
130,2022-05-11,Hatay,1,1785
131,2022-05-12,Manisa,9,1954
132,2022-05-13,Van,9,1245
133,2022-05-14,Erzincan,6,1628
134,2022-05-15,Aksaray,1,1876
135,2022-05-16,Kahramanmaraş,11,1815
136,2022-05-17,Van,17,1626
137,2022-05-18,Kocaeli,15,1740
138,2022-05-19,Karabük,2,1796
139,2022-05-20,Kütahya,15,1918
140,2022-05-21,Düzce,17,1159
141,2022-05-22,Siirt,7,1410
142,2022-05-23,Eskişehir,16,1195
143,2022-05-24,Afyon,2,1103
144,2022-05-25,Düzce,7,1441
145,2022-05-26,İstanbul,16,1781
146,2022-05-27,Bitlis,10,1107
147,2022-05-28,Bayburt,5,1383
148,2022-05-29,Sakarya,7,1313
149,2022-05-30,Aksaray,14,1495
150,2022-05-31,Zonguldak,12,1931
151,2022-06-01,Yalova,17,1689
152,2022-06-02,Balıkesir,3,1920
153,2022-06-03,Yalova,17,1785
154,2022-06-04,Tekirdağ,8,1154
155,2022-06-05,Ankara,7,1463
156,2022-06-06,Burdur,12,1146
157,2022-06-07,Muş,11,1566
158,2022-06-08,Bartın,11,1483
159,2022-06-09,İstanbul,6,1313
160,2022-06-10,Yozgat,8,1403
161,2022-06-11,Sakarya,12,1795
162,2022-06-12,Kırşehir,16,1342
163,2022-06-13,Çanakkale,10,1587
164,2022-06-14,Eskişehir,14,1046
165,2022-06-15,Bartın,10,1051
166,2022-06-16,Çanakkale,11,1887
167,2022-06-17,Kocaeli,8,1311
168,2022-06-18,Aydın,9,1726
169,2022-06-19,Ordu,12,1344
170,2022-06-20,Sinop,12,1885
171,2022-06-21,Çanakkale,11,1830
172,2022-06-22,Karaman,7,1086
173,2022-06-23,Sivas,3,1603
174,2022-06-24,Bartın,6,1684
175,2022-06-25,Kırıkkale,7,1807
176,2022-06-26,Düzce,10,1340
177,2022-06-27,Isparta,10,1672
178,2022-06-28,Ağrı,15,1528
179,2022-06-29,Afyon,7,1676
180,2022-06-30,Gümüşhane,13,1293
181,2022-07-01,Zonguldak,12,1805
182,2022-07-02,Malatya,4,1555
183,2022-07-03,Bitlis,2,1487
184,2022-07-04,Bartın,9,1932
185,2022-07-05,Bolu,7,1148
186,2022-07-06,Kocaeli,8,1067
187,2022-07-07,Bursa,5,1805
188,2022-07-08,Batman,17,1179
189,2022-07-09,Muş,8,1277
190,2022-07-10,Eskişehir,14,1696
191,2022-07-11,Erzincan,16,1669
192,2022-07-12,Çankırı,10,1088
193,2022-07-13,Nevşehir,12,1816
194,2022-07-14,Yalova,8,1607
195,2022-07-15,Malatya,1,1780
196,2022-07-16,Şanlıurfa,17,1890
197,2022-07-17,Kilis,17,1022
198,2022-07-18,Şanlıurfa,15,1542
199,2022-07-19,Zonguldak,2,1264
200,2022-07-20,Kırklareli,16,1955
201,2022-07-21,Amasya,8,1164
202,2022-07-22,Eskişehir,12,1732
203,2022-07-23,Erzurum,2,1926
204,2022-07-24,İstanbul,13,1740
205,2022-07-25,Çankırı,16,1584
206,2022-07-26,Kırşehir,16,1065
207,2022-07-27,Samsun,12,1902
208,2022-07-28,Balıkesir,9,1945
209,2022-07-29,Osmaniye,16,1897
210,2022-07-30,Zonguldak,15,1241
211,2022-07-31,Malatya,8,1379
212,2022-08-01,Hatay,3,1477
213,2022-08-02,Batman,4,1588
214,2022-08-03,Iğdır,6,1292
215,2022-08-04,Karabük,8,1222
216,2022-08-05,Ankara,8,1566
217,2022-08-06,Bursa,5,1851
218,2022-08-07,Isparta,8,1283
219,2022-08-08,Bayburt,9,1250
220,2022-08-09,Burdur,16,1473
221,2022-08-10,Karaman,14,1367
222,2022-08-11,Amasya,10,1337
223,2022-08-12,Malatya,12,1564
224,2022-08-13,Bolu,9,1308
225,2022-08-14,Konya,8,1535
226,2022-08-15,Ağrı,13,1424
227,2022-08-16,Kocaeli,10,1657
228,2022-08-17,Diyarbakır,12,1194
229,2022-08-18,Konya,2,1199
230,2022-08-19,Diyarbakır,8,1008
231,2022-08-20,İçel (Mersin),13,1630
232,2022-08-21,Zonguldak,12,1506
233,2022-08-22,İzmir,15,1032
234,2022-08-23,Kastamonu,10,1253
235,2022-08-24,Kastamonu,9,1743
236,2022-08-25,Isparta,12,1564
237,2022-08-26,Tokat,5,1301
238,2022-08-27,Karabük,6,1585
239,2022-08-28,Burdur,11,1616
240,2022-08-29,Balıkesir,3,1711
241,2022-08-30,Bayburt,6,1564
242,2022-08-31,Uşak,1,1852
243,2022-09-01,Şırnak,7,1553
244,2022-09-02,Uşak,15,1691
245,2022-09-03,Bilecik,11,1173
246,2022-09-04,Antalya,5,1155
247,2022-09-05,Eskişehir,4,1124
248,2022-09-06,Hatay,8,1916
249,2022-09-07,Kütahya,4,1598
250,2022-09-08,Samsun,9,1501
251,2022-09-09,Kastamonu,5,1716
252,2022-09-10,Bayburt,5,1210
253,2022-09-11,Düzce,8,1482
254,2022-09-12,Van,10,1708
255,2022-09-13,Van,4,1691
256,2022-09-14,Mardin,2,1393
257,2022-09-15,Karabük,1,1048
258,2022-09-16,Kilis,1,1499
259,2022-09-17,Elazığ,17,1049
260,2022-09-18,Amasya,5,1112
261,2022-09-19,Kocaeli,12,1122
262,2022-09-20,Van,8,1916
263,2022-09-21,Aksaray,16,1132
264,2022-09-22,Van,8,1538
265,2022-09-23,Kocaeli,2,1856
266,2022-09-24,Kilis,8,1773
267,2022-09-25,Iğdır,5,1416
268,2022-09-26,Adıyaman,3,1268
269,2022-09-27,Osmaniye,5,1922
270,2022-09-28,Afyon,6,1930
271,2022-09-29,İzmir,13,1326
272,2022-09-30,Elazığ,14,1238
273,2022-10-01,Ağrı,12,1503
274,2022-10-02,Bitlis,14,1930
275,2022-10-03,Gümüşhane,3,1635
276,2022-10-04,Elazığ,14,1031
277,2022-10-05,Kırşehir,14,1299
278,2022-10-06,Sivas,15,1411
279,2022-10-07,Zonguldak,7,1319
280,2022-10-08,Malatya,8,1422
281,2022-10-09,Kahramanmaraş,8,1600
282,2022-10-10,Çankırı,15,1701
283,2022-10-11,Kilis,17,1676
284,2022-10-12,Konya,13,1827
285,2022-10-13,Kilis,12,1487
286,2022-10-14,Batman,5,1288
287,2022-10-15,Antalya,8,1572
288,2022-10-16,Gaziantep,3,1949
289,2022-10-17,Rize,4,1857
290,2022-10-18,Elazığ,10,1540
291,2022-10-19,Bingöl,14,1938
292,2022-10-20,Siirt,12,1276
293,2022-10-21,Bartın,17,1900
294,2022-10-22,Ağrı,17,1972
295,2022-10-23,Siirt,8,1760
296,2022-10-24,Kırklareli,9,1121
297,2022-10-25,Ankara,2,1252
298,2022-10-26,Rize,3,1948
299,2022-10-27,Van,9,1517
300,2022-10-28,Niğde,1,1753
301,2022-10-29,Hakkari,1,1304
302,2022-10-30,Kocaeli,3,1756
303,2022-10-31,Aksaray,9,1096
304,2022-11-01,Denizli,6,1718
305,2022-11-02,Aydın,1,1080
306,2022-11-03,Tekirdağ,5,1400
307,2022-11-04,Yalova,9,1652
308,2022-11-05,Zonguldak,17,1946
309,2022-11-06,Balıkesir,6,1536
310,2022-11-07,Samsun,4,1058
311,2022-11-08,Hatay,11,1400
312,2022-11-09,Denizli,11,1798
313,2022-11-10,Kırklareli,6,1551
314,2022-11-11,Aksaray,11,1707
315,2022-11-12,Afyon,14,1147
316,2022-11-13,Amasya,10,1025
317,2022-11-14,Tokat,15,1320
318,2022-11-15,Edirne,6,1497
319,2022-11-16,Ordu,2,1989
320,2022-11-17,İstanbul,1,1019
321,2022-11-18,Düzce,2,1367
322,2022-11-19,Ardahan,5,1364
323,2022-11-20,Trabzon,12,1932
324,2022-11-21,Niğde,13,1331
325,2022-11-22,Kocaeli,11,1308
326,2022-11-23,Tokat,1,1548
327,2022-11-24,Kahramanmaraş,4,1185
328,2022-11-25,Hatay,1,1938
329,2022-11-26,Antalya,14,1499
330,2022-11-27,Ağrı,14,1224
331,2022-11-28,Siirt,14,1593
332,2022-11-29,Gaziantep,12,1924
333,2022-11-30,Rize,8,1797
334,2022-12-01,Ardahan,1,1540
335,2022-12-02,Amasya,13,1913
336,2022-12-03,Tokat,14,1278
337,2022-12-04,Kastamonu,15,1644
338,2022-12-05,Karabük,16,1139
339,2022-12-06,Gaziantep,3,1221
340,2022-12-07,Van,9,1843
341,2022-12-08,Diyarbakır,2,1794
342,2022-12-09,Uşak,12,1311
343,2022-12-10,Malatya,4,1201
344,2022-12-11,Niğde,9,1330
345,2022-12-12,Gaziantep,5,1085
346,2022-12-13,Gaziantep,16,1382
347,2022-12-14,Malatya,17,1157
348,2022-12-15,Manisa,3,1419
349,2022-12-16,Iğdır,4,1343
350,2022-12-17,Kocaeli,7,1154
351,2022-12-18,Erzurum,7,1062
352,2022-12-19,Kayseri,4,1036
353,2022-12-20,Karabük,1,1409
354,2022-12-21,Hakkari,9,1158
355,2022-12-22,Ardahan,7,1632
356,2022-12-23,Kahramanmaraş,6,1582
357,2022-12-24,Şanlıurfa,14,1416
358,2022-12-25,Düzce,5,1751
359,2022-12-26,Amasya,3,1568
360,2022-12-27,Trabzon,3,1579
361,2022-12-28,Iğdır,9,1125
362,2022-12-29,İzmir,8,1870
363,2022-12-30,Siirt,6,1332
